{
    "swagger": "2.0",
    "info": {
        "contact": {}
    },
    "paths": {
        "/config": {
            "get": {
                "description": "shows config of the project only on the development phase",
                "consumes": [
                    "application/json"
                ],
                "produces": [
                    "application/json"
                ],
                "tags": [
                    "config"
                ],
                "summary": "gets project config",
                "operationId": "get-config",
                "responses": {
                    "200": {
                        "description": "desc",
                        "schema": {
                            "allOf": [
                                {
                                    "$ref": "#/definitions/models.ResponseModel"
                                },
                                {
                                    "type": "object",
                                    "properties": {
                                        "data": {
                                            "$ref": "#/definitions/config.Config"
                                        }
                                    }
                                }
                            ]
                        }
                    },
                    "400": {
                        "description": "Bad Request",
                        "schema": {
                            "allOf": [
                                {
                                    "$ref": "#/definitions/models.ResponseModel"
                                },
                                {
                                    "type": "object",
                                    "properties": {
                                        "error": {
                                            "type": "string"
                                        }
                                    }
                                }
                            ]
                        }
                    },
                    "500": {
                        "description": "Server Error",
                        "schema": {
                            "allOf": [
                                {
                                    "$ref": "#/definitions/models.ResponseModel"
                                },
                                {
                                    "type": "object",
                                    "properties": {
                                        "error": {
                                            "type": "string"
                                        }
                                    }
                                }
                            ]
                        }
                    }
                }
            }
        },
        "/ping": {
            "get": {
                "description": "this returns \"pong\" messsage to show service is working",
                "consumes": [
                    "application/json"
                ],
                "produces": [
                    "application/json"
                ],
                "tags": [
                    "config"
                ],
                "summary": "returns \"pong\" message",
                "operationId": "ping",
                "responses": {
                    "200": {
                        "description": "desc",
                        "schema": {
                            "allOf": [
                                {
                                    "$ref": "#/definitions/models.ResponseModel"
                                },
                                {
                                    "type": "object",
                                    "properties": {
                                        "data": {
                                            "type": "string"
                                        }
                                    }
                                }
                            ]
                        }
                    },
                    "500": {
                        "description": "Internal Server Error",
                        "schema": {
                            "allOf": [
                                {
                                    "$ref": "#/definitions/models.ResponseModel"
                                },
                                {
                                    "type": "object",
                                    "properties": {
                                        "error": {
                                            "type": "string"
                                        }
                                    }
                                }
                            ]
                        }
                    }
                }
            }
        },
        "/v1/profession": {
            "get": {
                "description": "Get All Profession",
                "consumes": [
                    "application/json"
                ],
                "produces": [
                    "application/json"
                ],
                "tags": [
                    "profession"
                ],
                "summary": "Get All Profession",
                "operationId": "get_all_profession",
                "parameters": [
                    {
                        "type": "string",
                        "description": "offset",
                        "name": "offset",
                        "in": "query"
                    },
                    {
                        "type": "string",
                        "description": "limit",
                        "name": "limit",
                        "in": "query"
                    },
                    {
                        "type": "string",
                        "description": "name",
                        "name": "name",
                        "in": "query"
                    }
                ],
                "responses": {
                    "200": {
                        "description": "desc",
                        "schema": {
                            "allOf": [
                                {
                                    "$ref": "#/definitions/models.ResponseModel"
                                },
                                {
                                    "type": "object",
                                    "properties": {
                                        "data": {
                                            "$ref": "#/definitions/models.GetAllProfessionModel"
                                        }
                                    }
                                }
                            ]
                        }
                    },
                    "400": {
                        "description": "Bad Request",
                        "schema": {
                            "allOf": [
                                {
                                    "$ref": "#/definitions/models.ResponseModel"
                                },
                                {
                                    "type": "object",
                                    "properties": {
                                        "error": {
                                            "type": "string"
                                        }
                                    }
                                }
                            ]
                        }
                    },
                    "500": {
                        "description": "Server Error",
                        "schema": {
                            "allOf": [
                                {
                                    "$ref": "#/definitions/models.ResponseModel"
                                },
                                {
                                    "type": "object",
                                    "properties": {
                                        "error": {
                                            "type": "string"
                                        }
                                    }
                                }
                            ]
                        }
                    }
                }
            },
            "post": {
                "description": "Create Profession",
                "consumes": [
                    "application/json"
                ],
                "produces": [
                    "application/json"
                ],
                "tags": [
                    "profession"
                ],
                "summary": "Create Profession",
                "operationId": "create_profession",
                "parameters": [
                    {
                        "description": "profession",
                        "name": "profession",
                        "in": "body",
                        "required": true,
                        "schema": {
                            "$ref": "#/definitions/models.CreateProfessionModel"
                        }
                    }
                ],
                "responses": {
                    "200": {
                        "description": "desc",
                        "schema": {
                            "allOf": [
                                {
                                    "$ref": "#/definitions/models.ResponseModel"
                                },
                                {
                                    "type": "object",
                                    "properties": {
                                        "data": {
                                            "type": "string"
                                        }
                                    }
                                }
                            ]
                        }
                    },
                    "400": {
                        "description": "Bad Request",
                        "schema": {
                            "allOf": [
                                {
                                    "$ref": "#/definitions/models.ResponseModel"
                                },
                                {
                                    "type": "object",
                                    "properties": {
                                        "error": {
                                            "type": "string"
                                        }
                                    }
                                }
                            ]
                        }
                    },
                    "500": {
                        "description": "Server Error",
                        "schema": {
                            "allOf": [
                                {
                                    "$ref": "#/definitions/models.ResponseModel"
                                },
                                {
                                    "type": "object",
                                    "properties": {
                                        "error": {
                                            "type": "string"
                                        }
                                    }
                                }
                            ]
                        }
                    }
                }
            }
        },
        "/v1/profession/{profession_id}": {
            "get": {
                "description": "Get Profession",
                "consumes": [
                    "application/json"
                ],
                "produces": [
                    "application/json"
                ],
                "tags": [
                    "profession"
                ],
                "summary": "Get Profession",
                "operationId": "get_profession",
                "parameters": [
                    {
                        "type": "string",
                        "description": "profession_id",
                        "name": "profession_id",
                        "in": "path"
                    }
                ],
                "responses": {
                    "200": {
                        "description": "desc",
                        "schema": {
                            "allOf": [
                                {
                                    "$ref": "#/definitions/models.ResponseModel"
                                },
                                {
                                    "type": "object",
                                    "properties": {
                                        "data": {
                                            "$ref": "#/definitions/models.GetAllProfessionModel"
                                        }
                                    }
                                }
                            ]
                        }
                    },
                    "400": {
                        "description": "Bad Request",
                        "schema": {
                            "allOf": [
                                {
                                    "$ref": "#/definitions/models.ResponseModel"
                                },
                                {
                                    "type": "object",
                                    "properties": {
                                        "error": {
                                            "type": "string"
                                        }
                                    }
                                }
                            ]
                        }
                    },
                    "500": {
                        "description": "Server Error",
                        "schema": {
                            "allOf": [
                                {
                                    "$ref": "#/definitions/models.ResponseModel"
                                },
                                {
                                    "type": "object",
                                    "properties": {
                                        "error": {
                                            "type": "string"
                                        }
                                    }
                                }
                            ]
                        }
                    }
                }
            }
        }
    },
    "definitions": {
        "config.Config": {
            "type": "object",
            "properties": {
                "environment": {
                    "description": "develop, staging, production",
                    "type": "string"
                },
                "httpPort": {
                    "type": "string"
                },
                "logLevel": {
                    "type": "string"
                },
                "minioAccessKeyID": {
                    "type": "string"
                },
                "minioBucketName": {
                    "type": "string"
                },
                "minioEndpoint": {
                    "type": "string"
                },
                "minioHost": {
                    "type": "string"
                },
                "minioLocation": {
                    "type": "string"
                },
                "minioSecretKey": {
                    "type": "string"
                },
                "positionServiceHost": {
                    "type": "string"
                },
                "positionServicePort": {
                    "type": "integer"
                }
            }
        },
        "models.CreateProfessionModel": {
            "type": "object",
            "required": [
                "name"
            ],
            "properties": {
                "name": {
                    "type": "string"
                }
            }
        },
        "models.GetAllProfessionModel": {
            "type": "object",
            "properties": {
                "count": {
                    "type": "integer"
                },
                "professions": {
                    "type": "array",
                    "items": {
                        "$ref": "#/definitions/models.ProfessionModel"
                    }
                }
            }
        },
        "models.ProfessionModel": {
            "type": "object",
            "properties": {
                "id": {
                    "type": "string"
                },
                "name": {
                    "type": "string"
                }
            }
        },
        "models.ResponseModel": {
            "type": "object",
            "properties": {
                "code": {
                    "type": "integer"
                },
                "data": {},
                "error": {},
                "message": {
                    "type": "string"
                }
            }
        }
    },
    "securityDefinitions": {
        "ApiKeyAuth": {
            "type": "apiKey",
            "name": "Authorization",
            "in": "header"
        }
    }
}